<?xml version="1.0" encoding="utf-8"?>
<!-- Generator: Adobe Illustrator 21.1.0, SVG Export Plug-In . SVG Version: 6.00 Build 0)  -->
<svg version="1.1" id="Layer_1" xmlns="http://www.w3.org/2000/svg" xmlns:xlink="http://www.w3.org/1999/xlink" x="0px" y="0px"
	 viewBox="0 0 23.9 23.9" style="enable-background:new 0 0 23.9 23.9;" xml:space="preserve">
<style type="text/css">
	.st0{fill:#3E6577;}
	.st1{fill:#FFFFFF;}
</style>
<g>
	<path class="st0" d="M12.6,22.8c0,0,0.4,0.8,0.4,1.1c-0.2,0-0.5,0-0.6,0h-0.7c-0.1,0-0.4,0-0.6,0c0-0.3,0.4-1.1,0.4-1.1H12.6z"/>
	<path class="st0" d="M11.4,22.3c0,0-0.9,0-1,0c-0.2,0-0.4,0-0.4-0.2c0-0.1,0-0.4,0-0.5S8.5,20.3,8.5,20s0-5.9,0-6.1
		c0-0.2,0.7-1.1,0.7-1.1h2.4h0.6h2.4c0,0,0.7,0.8,0.7,1.1c0,0.2,0,5.8,0,6.1S14,21.5,14,21.6s0,0.4,0,0.5s-0.2,0.2-0.4,0.2s-1,0-1,0
		"/>
	<path class="st1" d="M14.8,14.6v1.6c0,0-2.1,0.1-2.8,0.1c-0.7,0-2.8-0.1-2.8-0.1v-1.6c0,0,2.1,0.1,2.8,0.1
		C12.7,14.7,14.8,14.6,14.8,14.6z"/>
	<path class="st0" d="M11.4,13c0,0-0.9,0-1,0c-0.2,0-0.4,0-0.4-0.2c0-0.1,0-0.4,0-0.5c0-0.2-1.4-1.3-1.4-1.6s0-5.9,0-6.1
		s0.7-1.1,0.7-1.1h2.4h0.6h2.4c0,0,0.7,0.8,0.7,1.1s0,5.8,0,6.1S14,12.2,14,12.3c0,0.2,0,0.4,0,0.5S13.8,13,13.6,13s-1,0-1,0"/>
	<path class="st1" d="M14.8,5.3v1.6c0,0-2.1,0.1-2.8,0.1c-0.7,0-2.8-0.1-2.8-0.1V5.3c0,0,2.1,0.1,2.8,0.1
		C12.7,5.4,14.8,5.3,14.8,5.3z"/>
	<polyline class="st1" points="9.5,10.9 10.5,12 10,12 8.9,10.9 	"/>
	<polyline class="st1" points="14.4,10.9 13.3,12 13.9,12 15,10.9 	"/>
	<g>
		<path class="st0" d="M10.2,3.2V1.5c0,0,1.3,0.1,1.4-0.4c0.1-0.6-0.7-0.8-1.2-1C10,0,9-0.1,8.8,0.3C8.7,0.6,9,0.9,9.8,1.4
			c0,0.6,0,1.8,0,1.8"/>
		<g>
			<path class="st0" d="M13.8,1.2L13.8,1.2c-0.1,0-0.2,0-0.3,0c-0.2,0-0.4,0-0.6,0c-0.2,0-0.3,0.1-0.4,0.2l0,0l0,0
				c-0.2,0-0.3,0-0.5,0c-0.1-0.2-0.3-0.2-0.5-0.2h-0.4c-0.1,0-0.2,0-0.4,0c-0.2,0.1-0.3,0.2-0.4,0.4c-0.1,0.3-0.1,0.6,0,0.8
				c0.1,0.2,0.1,0.3,0.2,0.4C10.8,3.1,11,3,11.2,3s0.4,0,0.6,0C11.9,3,12,3,12,2.9l0.1-0.1c0,0,0-0.1,0.1-0.1s0.3,0,0.4,0
				C12.7,2.8,12.8,2.9,13,3c0.2,0,0.4,0,0.7,0c0.1,0,0.2,0.1,0.3,0c0.1,0,0.2-0.1,0.3-0.5c0.1-0.3,0-0.6-0.1-1
				C14.1,1.3,13.9,1.2,13.8,1.2z M10.9,2.6c-0.4,0-0.4-1.1,0-1.1C11.4,1.5,11.4,2.6,10.9,2.6z"/>
		</g>
		<rect x="9.7" y="2.9" class="st0" width="4.6" height="0.3"/>
	</g>
</g>
</svg>
